tut/SystemC_textbook/codes/Chapter4/4_7_2 FifoinFIFO/pkt_switch.vcd
$date
     Apr 04, 2003       18:25:31
$end

$version
              SystemC 2.0.1 --- Jan 20 2003 15:14:32
$end

$timescale
     1 ps
$end

$scope module SystemC $end
$var wire    1  aaa  full       $end
$var wire    1  aab  empty       $end
$var wire    1  aac  wr_en       $end
$var wire    8  aad  wdata       $end
$var wire    1  aae  rd_en       $end
$var wire    8  aaf  rdata       $end
$var wire    1  aag  clk       $end
$upscope $end
$enddefinitions  $end

$comment
All initial values are dumped below at time 0 sec = 0 timescale units.
$end

$dumpvars
0aaa
1aab
0aac
b0 aad
0aae
b11001101 aaf
1aag
$end

#10000
1aaa
0aag

#20000
1aag

#30000
0aag

#40000
1aag

#50000
0aag

#60000
1aag

#70000
0aag

#80000
1aag

#90000
0aag

#100000
1aag

#110000
0aag

#120000
1aag

#130000
0aag

#140000
1aag

#150000
0aag

#160000
1aag

#170000
0aag

#180000
1aag

#190000
0aag

#200000
1aag

#210000
0aag

#220000
1aag

#230000
0aag

#240000
1aag

#250000
0aag

#260000
1aag

#270000
0aag

#280000
1aag

#290000
0aag

#300000
1aag

#310000
0aag

#320000
1aag

#330000
0aag

#340000
1aag

#350000
0aag

#360000
1aag

#370000
0aag

#380000
1aag

#390000
0aag

#400000
1aag

#410000
0aag

#420000
1aag

#430000
0aag

#440000
1aag

#450000
0aag

#460000
1aag

#470000
0aag

#480000
1aag

#490000
0aag

#500000
1aag

#510000
0aag

#520000
1aag

#530000
0aag

#540000
1aag

#550000
0aag

#560000
1aag

#570000
0aag

#580000
1aag

#590000
0aag

#600000
1aag

#610000
0aag

#620000
1aag

#630000
0aag

#640000
1aag

#650000
0aag

#660000
1aag

#670000
0aag

#680000
1aag

#690000
0aag

#700000
1aag

#710000
0aag

#720000
1aag

#730000
0aag

#740000
1aag

#750000
0aag

#760000
1aag

#770000
0aag

#780000
1aag

#790000
0aag

#800000
1aag

#810000
0aag

#820000
1aag

#830000
0aag

#840000
1aag

#850000
0aag

#860000
1aag

#870000
0aag

#880000
1aag

#890000
0aag

#900000
1aag

#910000
0aag

#920000
1aag

#930000
0aag

#940000
1aag

#950000
0aag

#960000
1aag

#970000
0aag

#980000
1aag

#990000
0aag

#1000000
1aag

#1010000
0aag

#1020000
1aag

#1030000
0aag

#1040000
1aag

#1050000
0aag

#1060000
1aag

#1070000
0aag

#1080000
1aag

#1090000
0aag

#1100000
1aag

#1110000
0aag

#1120000
1aag

#1130000
0aag

#1140000
1aag

#1150000
0aag

#1160000
1aag

#1170000
0aag

#1180000
1aag

#1190000
0aag

#1200000
1aag

#1210000
0aag

#1220000
1aag

#1230000
0aag

#1240000
1aag

#1250000
0aag

#1260000
1aag

#1270000
0aag

#1280000
1aag

#1290000
0aag

#1300000
1aag

#1310000
0aag

#1320000
1aag

#1330000
0aag

#1340000
1aag

#1350000
0aag

#1360000
1aag

#1370000
0aag

#1380000
1aag

#1390000
0aag

#1400000
1aag

#1410000
0aag

#1420000
1aag

#1430000
0aag

#1440000
1aag

#1450000
0aag

#1460000
1aag

#1470000
0aag

#1480000
1aag

#1490000
0aag

#1500000
1aag

#1510000
0aaa
b0 aaf
0aag

#1520000
1aag

#1530000
0aag

#1540000
1aag

#1550000
b1000110 aad
0aag

#1560000
1aag

#1570000
0aag

#1580000
1aag

#1590000
1aac
0aag

#1600000
0aab
b1000110 aaf
1aag

#1610000
1aae
0aag

#1620000
1aag

#1630000
0aac
0aae
0aag

#1640000
1aag

#1650000
0aag

#1660000
1aag

#1670000
0aag

#1680000
1aag

#1690000
b1100101 aad
0aag

#1700000
1aag

#1710000
0aag

#1720000
1aag

#1730000
1aac
0aag

#1740000
1aag

#1750000
0aag

#1760000
1aag

#1770000
0aac
0aag

#1780000
1aag

#1790000
0aag

#1800000
1aag

#1810000
1aae
0aag

#1820000
b1100101 aaf
1aag

#1830000
1aac
0aae
0aag

#1840000
1aag

#1850000
0aag

#1860000
1aag

#1870000
0aac
0aag

#1880000
1aag

#1890000
b1101100 aad
0aag

#1900000
1aag

#1910000
1aae
0aag

#1920000
1aag

#1930000
1aac
0aae
0aag

#1940000
1aag

#1950000
0aag

#1960000
1aag

#1970000
0aac
0aag

#1980000
1aag

#1990000
b100000 aad
0aag

#2000000
1aag

#2010000
1aae
0aag

#2020000
1aag

#2030000
1aac
0aae
0aag

#2040000
1aag

#2050000
0aag

#2060000
1aag

#2070000
0aac
0aag

#2080000
1aag

#2090000
b1100110 aad
0aag

#2100000
1aag

#2110000
0aag

#2120000
1aag

#2130000
1aac
1aae
0aag

#2140000
1aag

#2150000
0aae
0aag

#2160000
1aag

#2170000
0aac
0aag

#2180000
1aag

#2190000
0aag

#2200000
1aag

#2210000
b1110010 aad
0aag

#2220000
1aag

#2230000
0aag

#2240000
1aag

#2250000
1aac
0aag

#2260000
1aag

#2270000
1aae
0aag

#2280000
b1101100 aaf
1aag

#2290000
0aac
0aae
0aag

#2300000
1aag

#2310000
0aag

#2320000
1aag

#2330000
0aag

#2340000
1aag

#2350000
b1100101 aad
0aag

#2360000
1aag

#2370000
0aag

#2380000
1aag

#2390000
1aac
0aag

#2400000
1aag

#2410000
1aae
0aag

#2420000
1aag

#2430000
0aac
0aae
0aag

#2440000
1aag

#2450000
0aag

#2460000
1aag

#2470000
0aag

#2480000
1aag

#2490000
1aac
0aag

#2500000
1aag

#2510000
0aag

#2520000
1aag

#2530000
0aac
1aae
0aag

#2540000
b100000 aaf
1aag

#2550000
0aae
0aag

#2560000
1aag

#2570000
b100000 aad
0aag

#2580000
1aag

#2590000
0aag

#2600000
1aag

#2610000
1aac
0aag

#2620000
1aag

#2630000
0aag

#2640000
1aag

#2650000
0aac
1aae
0aag

#2660000
1aag

#2670000
b1110100 aad
0aae
0aag

#2680000
1aag

#2690000
0aag

#2700000
1aag

#2710000
1aac
0aag

#2720000
1aag

#2730000
0aag

#2740000
1aag

#2750000
0aac
1aae
0aag

#2760000
b1100110 aaf
1aag

#2770000
0aae
0aag

#2780000
1aag

#2790000
b1101111 aad
0aag

#2800000
1aag

#2810000
0aag

#2820000
1aag

#2830000
1aac
0aag

#2840000
1aag

#2850000
1aae
0aag

#2860000
1aag

#2870000
0aac
0aae
0aag

#2880000
1aag

#2890000
0aag

#2900000
1aag

#2910000
b100000 aad
0aag

#2920000
1aag

#2930000
0aag

#2940000
1aag

#2950000
1aac
1aae
0aag

#2960000
b1110010 aaf
1aag

#2970000
0aae
0aag

#2980000
1aag

#2990000
0aac
0aag

#3000000
1aag

#3010000
0aag

#3020000
1aag

#3030000
b1100011 aad
0aag

#3040000
1aag

#3050000
1aae
0aag

#3060000
1aag

#3070000
1aac
0aae
0aag

#3080000
1aag

#3090000
0aag

#3100000
1aag

#3110000
0aac
0aag

#3120000
1aag

#3130000
b1101111 aad
0aag

#3140000
1aag

#3150000
0aag

#3160000
1aag

#3170000
1aac
1aae
0aag

#3180000
b1100101 aaf
1aag

#3190000
0aae
0aag

#3200000
1aaa
1aag

#3210000
0aac
0aag

#3220000
1aag

#3230000
0aag

#3240000
1aag

#3250000
0aag

#3260000
1aag

#3270000
b1101110 aad
1aae
0aag

#3280000
0aaa
1aag

#3290000
0aae
0aag

#3300000
1aag

#3310000
1aac
0aag

#3320000
1aaa
1aag

#3330000
0aag

#3340000
1aag

#3350000
0aac
0aag

#3360000
1aag

#3370000
b1110100 aad
1aae
0aag

#3380000
0aaa
1aag

#3390000
0aae
0aag

#3400000
1aag

#3410000
1aac
0aag

#3420000
1aaa
1aag

#3430000
0aag

#3440000
1aag

#3450000
0aac
0aag

#3460000
1aag

#3470000
b1100001 aad
1aae
0aag

#3480000
0aaa
1aag

#3490000
0aae
0aag

#3500000
1aag

#3510000
1aac
0aag

#3520000
1aag

#3530000
0aag

#3540000
1aab
1aag

#3550000
0aac
0aag

#3560000
1aag

#3570000
0aag

#3580000
1aag

#3590000
0aag

#3600000
1aag

#3610000
0aag

#3620000
1aag

#3630000
0aag

#3640000
1aag

#3650000
0aag

#3660000
1aag

#3670000
0aag

#3680000
1aag

#3690000
0aag

#3700000
1aag

#3710000
0aag

#3720000
1aag

#3730000
0aag

#3740000
1aag

#3750000
0aag

#3760000
1aag

#3770000
b1100011 aad
0aag

#3780000
1aag

#3790000
0aag

#3800000
1aag

#3810000
1aac
0aag

#3820000
0aab
b1100011 aaf
1aag

#3830000
1aae
0aag

#3840000
1aag

#3850000
0aac
0aae
0aag

#3860000
1aag

#3870000
0aag

#3880000
1aag

#3890000
b1110100 aad
0aag

#3900000
1aag

#3910000
0aag

#3920000
1aag

#3930000
1aac
0aag

#3940000
1aag

#3950000
0aag

#3960000
1aag

#3970000
0aac
0aag

#3980000
1aag

#3990000
b100000 aad
1aae
0aag

#4000000
b1110100 aaf
1aag

#4010000
0aae
0aag

#4020000
1aag

#4030000
1aac
0aag

#4040000
1aag

#4050000
0aag

#4060000
1aag

#4070000
0aac
0aag

#4080000
1aag

#4090000
b1110100 aad
0aag

#4100000
1aag

#4110000
1aae
0aag

#4120000
1aag

#4130000
1aac
0aae
0aag

#4140000
1aag

#4150000
0aag

#4160000
1aag

#4170000
0aac
0aag

#4180000
1aag

#4190000
0aag

#4200000
1aag

#4210000
0aag

#4220000
1aag

#4230000
0aag

#4240000
1aag

#4250000
b1101000 aad
0aag

#4260000
1aag

#4270000
0aag

#4280000
1aag

#4290000
1aac
0aag

#4300000
1aag

#4310000
1aae
0aag

#4320000
b100000 aaf
1aag

#4330000
0aac
0aae
0aag

#4340000
1aag

#4350000
0aag

#4360000
1aag

#4370000
b1100101 aad
0aag

#4380000
1aag

#4390000
0aag

#4400000
1aag

#4410000
1aac
1aae
0aag

#4420000
1aag

#4430000
0aae
0aag

#4440000
1aag

#4450000
0aac
0aag

#4460000
1aag

#4470000
0aag

#4480000
1aag

#4490000
0aag

#4500000
1aag

#4510000
b100000 aad
0aag

#4520000
1aag

#4530000
1aae
0aag

#4540000
b1110100 aaf
1aag

#4550000
1aac
0aae
0aag

#4560000
1aag

#4570000
0aag

#4580000
1aag

#4590000
0aac
0aag

#4600000
1aag

#4610000
b1100001 aad
0aag

#4620000
1aag

#4630000
1aae
0aag

#4640000
1aag

#4650000
1aac
0aae
0aag

#4660000
1aag

#4670000
0aag

#4680000
1aag

#4690000
0aac
0aag

#4700000
1aag

#4710000
b1110101 aad
0aag

#4720000
1aag

#4730000
0aag

#4740000
1aag

#4750000
1aac
0aag

#4760000
1aag

#4770000
0aag

#4780000
1aag

#4790000
0aac
1aae
0aag

#4800000
b1101000 aaf
1aag

#4810000
0aae
0aag

#4820000
1aag

#4830000
b1110100 aad
0aag

#4840000
1aag

#4850000
0aag

#4860000
1aag

#4870000
1aac
0aag

#4880000
1aag

#4890000
0aag

#4900000
1aag

#4910000
0aac
1aae
0aag

#4920000
1aag

#4930000
b1101000 aad
0aae
0aag

#4940000
1aag

#4950000
0aag

#4960000
1aag

#4970000
1aac
0aag

#4980000
1aag

#4990000
0aag

#5000000
1aag

#5010000
0aac
0aag

#5020000
1aag

#5030000
0aag

#5040000
1aag

#5050000
b1101111 aad
1aae
0aag

#5060000
b1100101 aaf
1aag

#5070000
0aae
0aag

#5080000
1aag

#5090000
1aac
0aag

#5100000
1aag

#5110000
0aag

#5120000
1aag

#5130000
0aac
0aag

#5140000
1aag

#5150000
b1110010 aad
1aae
0aag

#5160000
1aag

#5170000
0aae
0aag

#5180000
1aag

#5190000
1aac
0aag

#5200000
1aag

#5210000
0aag

#5220000
1aag

#5230000
0aac
0aag

#5240000
1aag

#5250000
0aag

#5260000
1aag

#5270000
b100000 aad
0aag

#5280000
1aag

#5290000
0aag

#5300000
1aag

#5310000
1aac
1aae
0aag

#5320000
b100000 aaf
1aag

#5330000
0aae
0aag

#5340000
1aaa
1aag

#5350000
0aac
0aag

#5360000
1aag

#5370000
b1110110 aad
0aag

#5380000
1aag

#5390000
0aag

#5400000
1aag

#5410000
1aae
0aag

#5420000
0aaa
1aag

#5430000
0aae
0aag

#5440000
1aag

#5450000
1aac
0aag

#5460000
1aaa
1aag

#5470000
0aag

#5480000
1aag

#5490000
0aac
0aag

#5500000
1aag

#5510000
b1101001 aad
0aag

#5520000
1aag

#5530000
0aag

#5540000
1aag

#5550000
0aag

#5560000
1aag

#5570000
0aag

#5580000
1aag

#5590000
1aae
0aag

#5600000
0aaa
b1100001 aaf
1aag

#5610000
0aae
0aag

#5620000
1aag

#5630000
1aac
0aag

#5640000
1aaa
1aag

#5650000
0aag

#5660000
1aag

#5670000
0aac
0aag

#5680000
1aag

#5690000
0aag

#5700000
1aag

#5710000
b1100001 aad
0aag

#5720000
1aag

#5730000
1aae
0aag

#5740000
0aaa
1aag

#5750000
0aae
0aag

#5760000
1aag

#5770000
1aac
0aag

#5780000
1aaa
1aag

#5790000
0aag

#5800000
1aag

#5810000
0aac
0aag

#5820000
1aag

#5830000
b100000 aad
1aae
0aag

#5840000
0aaa
b1110101 aaf
1aag

#5850000
0aae
0aag

#5860000
1aag

#5870000
1aac
0aag

#5880000
1aaa
1aag

#5890000
0aag

#5900000
1aag

#5910000
0aac
0aag

#5920000
1aag

#5930000
b1000101 aad
1aae
0aag

#5940000
0aaa
1aag

#5950000
0aae
0aag

#5960000
1aag

#5970000
1aac
0aag

#5980000
1aag

#5990000
0aag

#6000000
1aab
1aag

#6010000
0aac
0aag

#6020000
1aag

#6030000
b1101101 aad
0aag

#6040000
1aag

#6050000
0aag

#6060000
1aag

#6070000
1aac
0aag

#6080000
0aab
b1101101 aaf
1aag

#6090000
1aae
0aag

#6100000
1aag

#6110000
0aac
0aae
0aag

#6120000
1aag

#6130000
b1100001 aad
0aag

#6140000
1aag

#6150000
0aag

#6160000
1aag

#6170000
1aac
0aag

#6180000
1aag

#6190000
1aae
0aag

#6200000
b1100001 aaf
1aag

#6210000
0aac
0aae
0aag

#6220000
1aag

#6230000
b1101001 aad
0aag

#6240000
1aag

#6250000
0aag

#6260000
1aag

#6270000
1aac
0aag

#6280000
1aag

#6290000
0aag

#6300000
1aag

#6310000
0aac
1aae
0aag

#6320000
1aag

#6330000
0aae
0aag

#6340000
1aag

#6350000
0aag

#6360000
1aag

#6370000
0aag

#6380000
1aag

#6390000
0aag

#6400000
1aag

#6410000
b1101100 aad
0aag

#6420000
1aag

#6430000
0aag

#6440000
1aag

#6450000
1aac
0aag

#6460000
1aag

#6470000
1aae
0aag

#6480000
b1101001 aaf
1aag

#6490000
0aac
0aae
0aag

#6500000
1aag

#6510000
0aag

#6520000
1aag

#6530000
b111010 aad
0aag

#6540000
1aag

#6550000
0aag

#6560000
1aag

#6570000
1aac
0aag

#6580000
1aag

#6590000
1aae
0aag

#6600000
1aag

#6610000
0aac
0aae
0aag

#6620000
1aag

#6630000
0aag

#6640000
1aag

#6650000
b1100011 aad
0aag

#6660000
1aag

#6670000
0aag

#6680000
1aag

#6690000
1aac
0aag

#6700000
1aag

#6710000
1aae
0aag

#6720000
b1101100 aaf
1aag

#6730000
0aac
0aae
0aag

#6740000
1aag

#6750000
b1101000 aad
0aag

#6760000
1aag

#6770000
0aag

#6780000
1aag

#6790000
1aac
0aag

#6800000
1aag

#6810000
1aae
0aag

#6820000
1aag

#6830000
0aac
0aae
0aag

#6840000
1aag

#6850000
0aag

#6860000
1aag

#6870000
0aag

#6880000
1aag

#6890000
b1100101 aad
0aag

#6900000
1aag

#6910000
0aag

#6920000
1aag

#6930000
1aac
0aag

#6940000
1aag

#6950000
0aag

#6960000
1aag

#6970000
0aac
0aag

#6980000
1aag

#6990000
1aae
0aag

#7000000
b111010 aaf
1aag

#7010000
b1101110 aad
0aae
0aag

#7020000
1aag

#7030000
0aag

#7040000
1aag

#7050000
1aac
0aag

#7060000
1aag

#7070000
0aag

#7080000
1aag

#7090000
0aac
0aag

#7100000
1aag

#7110000
b1111000 aad
0aag

#7120000
1aag

#7130000
0aag

#7140000
1aag

#7150000
1aac
1aae
0aag

#7160000
1aag

#7170000
0aae
0aag

#7180000
1aag

#7190000
0aac
0aag

#7200000
1aag

#7210000
b1101001 aad
0aag

#7220000
1aag

#7230000
0aag

#7240000
1aag

#7250000
1aac
0aag

#7260000
1aag

#7270000
0aag

#7280000
1aag

#7290000
0aac
0aag

#7300000
1aag

#7310000
b1100101 aad
0aag

#7320000
1aag

#7330000
1aae
0aag

#7340000
b1100011 aaf
1aag

#7350000
1aac
0aae
0aag

#7360000
1aag

#7370000
0aag

#7380000
1aag

#7390000
0aac
0aag

#7400000
1aag

#7410000
0aag

#7420000
1aag

#7430000
1aae
0aag

#7440000
1aag

#7450000
0aae
0aag

#7460000
1aag

#7470000
0aag

#7480000
1aag

#7490000
1aac
0aag

#7500000
1aag

#7510000
0aag

#7520000
1aag

#7530000
0aac
1aae
0aag

#7540000
b1101000 aaf
1aag

#7550000
b1000000 aad
0aae
0aag

#7560000
1aag

#7570000
0aag

#7580000
1aag

#7590000
1aac
0aag

#7600000
1aag

#7610000
0aag

#7620000
1aaa
1aag

#7630000
0aac
0aag

#7640000
1aag

#7650000
b1101101 aad
1aae
0aag

#7660000
0aaa
1aag

#7670000
0aae
0aag

#7680000
1aag

#7690000
1aac
0aag

#7700000
1aaa
1aag

#7710000
0aag

#7720000
1aag

#7730000
0aac
0aag

#7740000
1aag

#7750000
b1100001 aad
0aag

#7760000
1aag

#7770000
0aag

#7780000
1aag

#7790000
1aae
0aag

#7800000
0aaa
b1100101 aaf
1aag

#7810000
0aae
0aag

#7820000
1aag

#7830000
1aac
0aag

#7840000
1aaa
1aag

#7850000
0aag

#7860000
1aag

#7870000
0aac
0aag

#7880000
1aag

#7890000
1aae
0aag

#7900000
0aaa
1aag

#7910000
b1101001 aad
0aae
0aag

#7920000
1aag

#7930000
0aag

#7940000
1aag

#7950000
1aac
0aag

#7960000
1aaa
1aag

#7970000
0aag

#7980000
1aag

#7990000
0aac
1aae
0aag

#8000000
0aaa
b1101110 aaf
1aag

#8010000
0aae
0aag

#8020000
1aag

#8030000
0aag

#8040000
1aag

#8050000
b1101100 aad
0aag

#8060000
1aag

#8070000
0aag

#8080000
1aag

#8090000
1aac
0aag

#8100000
1aaa
1aag

#8110000
0aag

#8120000
1aag

#8130000
0aac
0aag

#8140000
1aag

#8150000
b1110011 aad
1aae
0aag

#8160000
0aaa
1aag

#8170000
0aae
0aag

#8180000
1aag

#8190000
1aac
0aag

#8200000
1aag

#8210000
0aag

#8220000
1aab
1aag

#8230000
0aac
0aag

#8240000
1aag

#8250000
b101110 aad
0aag

#8260000
1aag

#8270000
0aag

#8280000
1aag

#8290000
1aac
0aag

#8300000
0aab
b101110 aaf
1aag

#8310000
1aae
0aag

#8320000
1aag

#8330000
0aac
0aae
0aag

#8340000
1aag

#8350000
b1110100 aad
0aag

#8360000
1aag

#8370000
0aag

#8380000
1aag

#8390000
1aac
0aag

#8400000
1aag

#8410000
1aae
0aag

#8420000
b1110100 aaf
1aag

#8430000
0aac
0aae
0aag

#8440000
1aag

#8450000
b1110011 aad
0aag

#8460000
1aag

#8470000
0aag

#8480000
1aag

#8490000
1aac
0aag

#8500000
1aag

#8510000
1aae
0aag

#8520000
1aag

#8530000
0aac
0aae
0aag

#8540000
1aag

#8550000
0aag

#8560000
1aag

#8570000
b1101001 aad
0aag

#8580000
1aag

#8590000
0aag

#8600000
1aag

#8610000
1aac
0aag

#8620000
1aag

#8630000
0aag

#8640000
1aag

#8650000
0aac
0aag

#8660000
1aag

#8670000
0aag

#8680000
1aag

#8690000
0aag

#8700000
1aag

#8710000
b1101110 aad
1aae
0aag

#8720000
b1110011 aaf
1aag

#8730000
0aae
0aag

#8740000
1aag

#8750000
1aac
0aag

#8760000
1aag

#8770000
0aag

#8780000
1aag

#8790000
0aac
0aag

#8800000
1aag

#8810000
b1100111 aad
0aag

#8820000
1aag

#8830000
1aae
0aag

#8840000
1aag

#8850000
1aac
0aae
0aag

#8860000
1aag

#8870000
0aag

#8880000
1aag

#8890000
0aac
0aag

#8900000
1aag

#8910000
0aag

#8920000
1aag

#8930000
0aag

#8940000
1aag

#8950000
0aag

#8960000
1aag

#8970000
1aae
0aag

#8980000
b1101001 aaf
1aag

#8990000
b1101000 aad
0aae
0aag

#9000000
1aag

#9010000
0aag

#9020000
1aag

#9030000
1aac
0aag

#9040000
1aag

#9050000
0aag

#9060000
1aag

#9070000
0aac
0aag

#9080000
1aag

#9090000
b1110101 aad
1aae
0aag

#9100000
1aag

#9110000
0aae
0aag

#9120000
1aag

#9130000
1aac
0aag

#9140000
1aag

#9150000
0aag

#9160000
1aag

#9170000
0aac
0aag

#9180000
1aag

#9190000
0aag

#9200000
1aag

#9210000
1aae
0aag

#9220000
b1101110 aaf
1aag

#9230000
0aae
0aag

#9240000
1aag

#9250000
0aag

#9260000
1aag

#9270000
b1100001 aad
0aag

#9280000
1aag

#9290000
0aag

#9300000
1aag

#9310000
1aac
0aag

#9320000
1aag

#9330000
0aag

#9340000
1aag

#9350000
0aac
0aag

#9360000
1aag

#9370000
b101110 aad
0aag

#9380000
1aag

#9390000
1aae
0aag

#9400000
1aag

#9410000
1aac
0aae
0aag

#9420000
1aag

#9430000
0aag

#9440000
1aag

#9450000
0aac
0aag

#9460000
1aag

#9470000
b1100101 aad
0aag

#9480000
1aag

#9490000
0aag

#9500000
1aag

#9510000
1aac
0aag

#9520000
1aag

#9530000
0aag

#9540000
1aag

#9550000
0aac
1aae
0aag

#9560000
b1100111 aaf
1aag

#9570000
0aae
0aag

#9580000
1aag

#9590000
0aag

#9600000
1aag

#9610000
b1100100 aad
0aag

#9620000
1aag

#9630000
0aag

#9640000
1aag

#9650000
1aac
1aae
0aag

#9660000
1aag

#9670000
0aae
0aag

#9680000
1aag

#9690000
0aac
0aag

#9700000
1aag

#9710000
b1110101 aad
0aag

#9720000
1aag

#9730000
0aag

#9740000
1aag

#9750000
1aac
1aae
0aag

#9760000
b1101000 aaf
1aag

#9770000
0aae
0aag

#9780000
1aag

#9790000
0aac
0aag

#9800000
1aag

#9810000
0aag

#9820000
1aag

#9830000
0aag

#9840000
1aag

#9850000
b101110 aad
1aae
0aag

#9860000
1aag

#9870000
0aae
0aag

#9880000
1aag

#9890000
1aac
0aag

#9900000
1aag

#9910000
0aag

#9920000
1aag

#9930000
0aac
0aag

#9940000
1aag

#9950000
0aag

#9960000
1aag

#9970000
b1100011 aad
0aag

#9980000
1aag

#9990000
1aae
0aag

#10000000
b1110101 aaf
1aag

#10010000
1aac
0aae
0aag

#10020000
1aag

#10030000
0aag

#10040000
1aaa
1aag

#10050000
0aac
0aag

#10060000
1aag

#10070000
b1101110 aad
0aag

#10080000
1aag

#10090000
0aag

#10100000
1aag

#10110000
1aae
0aag

#10120000
0aaa
1aag

#10130000
0aae
0aag

#10140000
1aag

#10150000
1aac
0aag

#10160000
1aaa
1aag

#10170000
0aag

#10180000
1aag

#10190000
0aac
0aag

#10200000
1aag

#10210000
b100001 aad
1aae
0aag

#10220000
0aaa
b1100001 aaf
1aag

#10230000
0aae
0aag

#10240000
1aag

#10250000
1aac
0aag

#10260000
1aaa
1aag

#10270000
0aag

#10280000
1aag

#10290000
0aac
0aag

#10300000
1aag

#10310000
1aae
0aag

#10320000
0aaa
1aag

#10330000
b1010 aad
0aae
0aag

#10340000
1aag

#10350000
0aag

#10360000
1aag

#10370000
1aac
0aag

#10380000
1aag

#10390000
0aag

#10400000
1aab
1aag

#10410000
0aac
0aag

