tut/logic_gates/Wave.vcd
$date
     Aug 23, 2011       00:24:58
$end

$version
              SystemC 2.2.0 --- May 21 2010 20:45:53
$end

$timescale
     1 ns
$end

$scope module SystemC $end
$var wire    4  aaa  Pattern [3:0]  $end
$var wire    1  aab  Result       $end
$upscope $end
$enddefinitions  $end

$comment
All initial values are dumped below at time 0 sec = 0 timescale units.
$end

$dumpvars
b0 aaa
0aab
$end

#5
b1 aaa

#10
b10 aaa

#15
b11 aaa

#20
b100 aaa

#25
b101 aaa

#30
b110 aaa

#35
b111 aaa

#40
b1000 aaa

#45
b1001 aaa

#50
b1010 aaa

#55
b1011 aaa

#60
b1100 aaa

#65
b1101 aaa

#70
b1110 aaa

#75
b1111 aaa
1aab

#80
b0 aaa
0aab

#85
b1 aaa

#90
b10 aaa

#95
b11 aaa

