tut/SystemC_textbook/codes/Chapter9/9_3_1 Matlab as computation engine/pkt_switch/pkt_switch.vcd
$date
     Jul 04, 2003       09:27:16
$end

$version
              SystemC 2.0.1 --- Jan 20 2003 15:14:32
$end

$timescale
     1 ps
$end

$scope module SystemC $end
$var wire    1  aaa  SWITCH_CNTRL       $end
$var wire    1  aab  CLK1       $end
$var wire    1  aac  CLK2       $end
$var wire    8  aad  PKT_IN0.data       $end
$var wire    4  aae  PKT_IN0.id       $end
$var wire    1  aaf  PKT_IN0.dest0       $end
$var wire    1  aag  PKT_IN0.dest1       $end
$var wire    1  aah  PKT_IN0.dest2       $end
$var wire    1  aai  PKT_IN0.dest3       $end
$var wire    8  aaj  PKT_IN1.data       $end
$var wire    4  aak  PKT_IN1.id       $end
$var wire    1  aal  PKT_IN1.dest0       $end
$var wire    1  aam  PKT_IN1.dest1       $end
$var wire    1  aan  PKT_IN1.dest2       $end
$var wire    1  aao  PKT_IN1.dest3       $end
$var wire    8  aap  PKT_IN2.data       $end
$var wire    4  aaq  PKT_IN2.id       $end
$var wire    1  aar  PKT_IN2.dest0       $end
$var wire    1  aas  PKT_IN2.dest1       $end
$var wire    1  aat  PKT_IN2.dest2       $end
$var wire    1  aau  PKT_IN2.dest3       $end
$var wire    8  aav  PKT_IN3.data       $end
$var wire    4  aaw  PKT_IN3.id       $end
$var wire    1  aax  PKT_IN3.dest0       $end
$var wire    1  aay  PKT_IN3.dest1       $end
$var wire    1  aaz  PKT_IN3.dest2       $end
$var wire    1  aba  PKT_IN3.dest3       $end
$var wire    8  abb  PKT_OUT0.data       $end
$var wire    4  abc  PKT_OUT0.id       $end
$var wire    1  abd  PKT_OUT0.dest0       $end
$var wire    1  abe  PKT_OUT0.dest1       $end
$var wire    1  abf  PKT_OUT0.dest2       $end
$var wire    1  abg  PKT_OUT0.dest3       $end
$var wire    8  abh  PKT_OUT1.data       $end
$var wire    4  abi  PKT_OUT1.id       $end
$var wire    1  abj  PKT_OUT1.dest0       $end
$var wire    1  abk  PKT_OUT1.dest1       $end
$var wire    1  abl  PKT_OUT1.dest2       $end
$var wire    1  abm  PKT_OUT1.dest3       $end
$var wire    8  abn  PKT_OUT2.data       $end
$var wire    4  abo  PKT_OUT2.id       $end
$var wire    1  abp  PKT_OUT2.dest0       $end
$var wire    1  abq  PKT_OUT2.dest1       $end
$var wire    1  abr  PKT_OUT2.dest2       $end
$var wire    1  abs  PKT_OUT2.dest3       $end
$var wire    8  abt  PKT_OUT3.data       $end
$var wire    4  abu  PKT_OUT3.id       $end
$var wire    1  abv  PKT_OUT3.dest0       $end
$var wire    1  abw  PKT_OUT3.dest1       $end
$var wire    1  abx  PKT_OUT3.dest2       $end
$var wire    1  aby  PKT_OUT3.dest3       $end
$upscope $end
$enddefinitions  $end

$comment
All initial values are dumped below at time 0 sec = 0 timescale units.
$end

$dumpvars
0aaa
1aab
0aac
b0 aad
b0 aae
0aaf
0aag
0aah
0aai
b0 aaj
b0 aak
0aal
0aam
0aan
0aao
b0 aap
b0 aaq
0aar
0aas
0aat
0aau
b0 aav
b0 aaw
0aax
0aay
0aaz
0aba
b0 abb
b0 abc
0abd
0abe
0abf
0abg
b0 abh
b0 abi
0abj
0abk
0abl
0abm
b0 abn
b0 abo
0abp
0abq
0abr
0abs
b0 abt
b0 abu
0abv
0abw
0abx
0aby
$end

#10000
1aac

#25000
0aac

#37500
0aab

#40000
1aaa
1aac

#55000
0aac

#70000
0aaa
1aac

#75000
1aab

#85000
0aac

#100000
1aaa
1aac

#112500
0aab

#115000
0aac

#130000
0aaa
1aac

#145000
0aac

#150000
1aab

#160000
1aaa
1aac

#175000
0aac

#187500
0aab

#190000
0aaa
1aac

#205000
0aac

#220000
1aaa
1aac

#225000
1aab

#235000
0aac

#250000
0aaa
1aac

#262500
0aab

#265000
0aac

#280000
1aaa
1aac

#295000
0aac

#300000
1aab

#310000
0aaa
1aac

#325000
0aac

#337500
0aab

#340000
1aaa
1aac

#355000
0aac

#370000
0aaa
1aac

#375000
1aab

#385000
0aac

#400000
1aaa
1aac

#412500
0aab

#415000
0aac

#430000
0aaa
1aac

#445000
0aac

#450000
1aab

#460000
1aaa
1aac

#475000
0aac

#487500
0aab

#490000
0aaa
1aac

#505000
0aac

#520000
1aaa
1aac

#525000
1aab

#535000
0aac

#550000
0aaa
1aac

#562500
0aab

#565000
0aac

#580000
1aaa
1aac

#595000
0aac

#600000
1aab
b1100100 aad
1aaf
1aag
1aah
1aai
b10101110 aaj
b1 aak
1aal
0aam
0aan
0aao
b10001001 aap
b10 aaq
0aar
1aas
1aat
1aau
b1001111 aav
b11 aaw
0aax
0aay
1aaz
1aba

#610000
0aaa
1aac

#625000
0aac

#637500
0aab

#640000
1aaa
1aac
b10101110 abb
b1 abc
1abd
0abe
0abf
0abg
b10001001 abh
b10 abi
0abj
1abk
1abl
1abm
b1001111 abn
b11 abo
0abp
0abq
1abr
1abs
b1100100 abt
1abv
1abw
1abx
1aby

#655000
0aac

#670000
0aaa
1aac

#675000
1aab

#685000
0aac

#700000
1aaa
1aac
b1100100 abn
b0 abo
1abp
1abq
0abs

#712500
0aab

#715000
0aac

#730000
0aaa
1aac

#745000
0aac

#750000
1aab
b11000101 aad
0aaf
0aah
0aai
b10010101 aaj
0aal
1aam
1aan
b10110100 aav
1aay

#760000
1aaa
1aac
b1100100 abh
b0 abi
1abj
0abl
0abm
b10110100 abn
b11 abo
0abp
1abs
b10001001 abt
b10 abu
0abv
0abw

#775000
0aac

#787500
0aab

#790000
0aaa
1aac

#805000
0aac

#820000
1aaa
1aac
b10110100 abh
b11 abi
0abj
1abm
b10001001 abn
b10 abo
0abq
0abs
b1001111 abt
b11 abu
0abx

#825000
1aab
b101011 aap
0aat

#835000
0aac

#850000
0aaa
1aac

#862500
0aab

#865000
0aac

#880000
1aaa
1aac
b101011 abh
b10 abi

#895000
0aac

#900000
1aab
b1010101 aaj
1aal
0aam
0aan

#910000
0aaa
1aac

#925000
0aac

#937500
0aab

#940000
1aaa
1aac
b10010101 abn
b1 abo
1abq
b10110100 abt

#955000
0aac

#970000
0aaa
1aac

#975000
1aab
b10110101 aad
1aaf
0aag
1aai

#985000
0aac

#1000000
1aaa
1aac
b1010101 abb
b10010101 abh
b1 abi
0abm
b101011 abt
b10 abu

#1012500
0aab

#1015000
0aac

#1030000
0aaa
1aac

#1045000
0aac

#1050000
1aab
b1111101 aaj
b10001011 aav
0aay

#1060000
1aaa
1aac
b1111101 abb
b10001011 abn
b11 abo
0abq
1abs

#1075000
0aac

#1087500
0aab

#1090000
0aaa
1aac

#1105000
0aac

#1120000
1aaa
1aac
b10110101 abt
b0 abu
1abv

#1125000
1aab
b11110000 aap
1aar
1aat
0aau

#1135000
0aac

#1150000
0aaa
1aac

#1162500
0aab

#1165000
0aac

#1180000
1aaa
1aac
b11000101 abh
b0 abi

#1195000
0aac

#1200000
1aab

#1210000
0aaa
1aac

#1225000
0aac

#1237500
0aab

#1240000
1aaa
1aac
b11110000 abh
b10 abi
1abj
1abl
b10001011 abt
b11 abu
0abv

#1255000
0aac

#1270000
0aaa
1aac

#1275000
1aab
b11001001 aad
1aah
0aai
b10010111 aav

#1285000
0aac

#1300000
1aaa
1aac
b11110000 abb
b10 abc
1abf
b10010111 abn

#1312500
0aab

#1315000
0aac

#1330000
0aaa
1aac

#1345000
0aac

#1350000
1aab
b1111010 aaj
1aao

#1360000
1aaa
1aac
b1111010 abb
b1 abc
0abf
1abg
b11001001 abn
b0 abo
1abp
0abs

#1375000
0aac

#1387500
0aab

#1390000
0aaa
1aac

#1405000
0aac

#1420000
1aaa
1aac
b11110000 abn
b10 abo
0abp
b1111010 abt
b1 abu

#1425000
1aab
b10110 aad
0aaf
1aag
0aah
1aai
b1111011 aap
0aas
1aau

#1435000
0aac

#1450000
0aaa
1aac

#1462500
0aab

#1465000
0aac

#1480000
1aaa
1aac
b10010111 abt
b11 abu

#1495000
0aac

#1500000
1aab

#1510000
0aaa
1aac

#1525000
0aac

#1537500
0aab

#1540000
1aaa
1aac
b1111011 abb
b10 abc
1abf
b10110 abt
b0 abu
1abw

#1555000
0aac

#1570000
0aaa
1aac

#1575000
1aab
b10111011 aad
1aah
b11000101 aav
1aax
1aay
0aba

#1585000
0aac

#1600000
1aaa
1aac
b1111011 abt
b10 abu
0abw
1abx

#1612500
0aab

#1615000
0aac

#1630000
0aaa
1aac

#1645000
0aac

#1650000
1aab
b11010101 aaj
0aal

#1660000
1aaa
1aac
b10110 abh
b0 abi
0abj
0abl
b1111011 abn
b10111011 abt
b0 abu
1abw

#1675000
0aac

#1687500
0aab

#1690000
0aaa
1aac

#1705000
0aac

#1720000
1aaa
1aac
b10111011 abn
b0 abo
1abq
b11010101 abt
b1 abu
0abw
0abx

#1725000
1aab
b1010100 aad
1aaf
0aag
0aah
0aai
b11011100 aap
0aar

#1735000
0aac

#1750000
0aaa
1aac

#1762500
0aab

#1765000
0aac

#1780000
1aaa
1aac
b10111011 abh
b11000101 abn
b11 abo
1abp

#1795000
0aac

#1800000
1aab

#1810000
0aaa
1aac

#1825000
0aac

#1837500
0aab

#1840000
1aaa
1aac
b11000101 abh
b11 abi
1abj

#1855000
0aac

#1870000
0aaa
1aac

#1875000
1aab
b1010101 aaj
1aal
1aam
0aao
b100010 aap
1aar
b110000 aav
0aax
0aaz
1aba

#1885000
0aac

#1900000
1aaa
1aac
b1010101 abb
b1 abc
1abe
0abf
0abg

#1912500
0aab

#1915000
0aac

#1930000
0aaa
1aac

#1945000
0aac

#1950000
1aab
b11011100 aad

#1960000
1aaa
1aac
b1010100 abb
b0 abc
0abe
b110000 abh
0abj
1abm

#1975000
0aac

#1987500
0aab

#1990000
0aaa
1aac

#2005000
0aac

#2020000
1aaa
1aac

#2025000
1aab

#2035000
0aac

#2050000
0aaa
1aac

#2062500
0aab

#2065000
0aac

#2080000
1aaa
1aac
b1010101 abh
b1 abi
0abm
b110000 abt
b11 abu

#2095000
0aac

#2100000
1aab
b1110 aap
1aas
0aau

#2110000
0aaa
1aac

#2125000
0aac

#2137500
0aab

#2140000
1aaa
1aac
b11011100 abt
b10 abu
1abx

#2155000
0aac

#2170000
0aaa
1aac

#2175000
1aab
b1000001 aaj
0aal
1aan
1aao
b11111000 aav
1aaz

#2185000
0aac

#2200000
1aaa
1aac
b11011100 abb
b11011100 abn
b10 abo
0abp
0abq

#2212500
0aab

#2215000
0aac

#2230000
0aaa
1aac

#2245000
0aac

#2250000
1aab
b1000000 aad
0aaf
1aag
1aai

#2260000
1aaa
1aac
b100010 abb
b10 abc
1abf
1abg
b1110 abh
b10 abi
1abj
1abl
b11111000 abn
b11 abo
1abq
1abs
b1000000 abt
b0 abu
1abw
0abx

#2275000
0aac

#2287500
0aab

#2290000
0aaa
1aac

#2305000
0aac

#2320000
1aaa
1aac
b1110 abb
0abg
b11111000 abh
b11 abi
0abj
0abl
1abm
b100010 abt
b10 abu
0abw
1abx

#2325000
1aab
b11111000 aap

#2335000
0aac

#2350000
0aaa
1aac

#2362500
0aab

#2365000
0aac

#2380000
1aaa
1aac
b1000000 abh
b0 abi
0abm
b100010 abn
b10 abo
0abq
0abs

#2395000
0aac

#2400000
1aab
b10101010 aaj
1aal
0aan
0aao
b11000000 aav
1aax
0aba

#2410000
0aaa
1aac

#2425000
0aac

#2437500
0aab

#2440000
1aaa
1aac
b11111000 abh
b10 abi
1abj
1abl
b1110 abn
b11111000 abt
b11 abu
0abx

#2455000
0aac

#2470000
0aaa
1aac

#2475000
1aab
b11101000 aad
1aaf
1aah

#2485000
0aac

#2500000
1aaa
1aac
b11111000 abb
b11000000 abn
b11 abo
1abp
1abq
b1000001 abt
b1 abu
1abw
1abx

#2512500
0aab

#2515000
0aac

#2530000
0aaa
1aac

#2545000
0aac

#2550000
1aab
b11001011 aaj
0aal
b110101 aap

#2560000
1aaa
1aac
b10101010 abb
b1 abc
1abe
0abf
b11000000 abh
b11 abi
0abl
b1000001 abn
b1 abo
0abp

#2575000
0aac

#2587500
0aab

#2590000
0aaa
1aac

#2605000
0aac

#2620000
1aaa
1aac
b1000001 abh
b1 abi
0abj
b11111000 abn
b10 abo
0abq

#2625000
1aab
b110100 aav
0aax
0aay

#2635000
0aac

#2650000
0aaa
1aac

#2662500
0aab

#2665000
0aac

#2680000
1aaa
1aac
b110101 abh
b10 abi
1abj
1abl

#2695000
0aac

#2700000
1aab

#2710000
0aaa
1aac

#2725000
0aac

#2737500
0aab

#2740000
1aaa
1aac
b110101 abb
b10 abc
0abe
1abf
b10101010 abh
b1 abi
0abj
0abl
b11101000 abt
b0 abu
1abv

#2755000
0aac

#2770000
0aaa
1aac

#2775000
1aab
b11010010 aad
0aaf
b10010 aaj
1aal
0aam
b10111 aap
0aas
0aat
b1001110 aav
1aay

#2785000
0aac

#2800000
1aaa
1aac
b10010 abb
b1 abc
0abf
b11001011 abh
b11101000 abn
b0 abo
1abp
1abq

#2812500
0aab

#2815000
0aac

#2830000
0aaa
1aac

#2845000
0aac

#2850000
1aab

#2860000
1aaa
1aac
b11101000 abh
b0 abi
1abj
b110101 abn
b10 abo
0abp
0abq
b11010010 abt
0abv

#2875000
0aac

#2887500
0aab

#2890000
0aaa
1aac

#2905000
0aac

#2920000
1aaa
1aac
b11010010 abn
b0 abo
1abq

#2925000
1aab
b1110111 aad
0aai

#2935000
0aac

#2950000
0aaa
1aac

#2962500
0aab

#2965000
0aac

#2980000
1aaa
1aac
b10111 abb
b10 abc
b11010010 abh
0abj
b110100 abn
b11 abo
0abq

#2995000
0aac

#3000000
1aab
b11111101 aaj
0aal
1aam
b11 aap
0aar
1aas
b100 aav
1aax

#3010000
0aaa
1aac

#3025000
0aac

#3037500
0aab

#3040000
1aaa
1aac
b11 abh
b10 abi
b1110111 abn
b0 abo
1abq

#3055000
0aac

#3070000
0aaa
1aac

#3075000
1aab

#3085000
0aac

#3100000
1aaa
1aac
b1110111 abh
b0 abi
b1001110 abn
b11 abo

#3112500
0aab

#3115000
0aac

#3130000
0aaa
1aac

#3145000
0aac

#3150000
1aab
b101011 aap
b10010000 aav
0aaz

#3160000
1aaa
1aac
b1001110 abh
b11 abi

#3175000
0aac

#3187500
0aab

#3190000
0aaa
1aac

#3205000
0aac

#3220000
1aaa
1aac
b11111101 abh
b1 abi
b100 abn
1abp

#3225000
1aab
b1 aad
0aah
b1110011 aaj
1aal
0aam

#3235000
0aac

#3250000
0aaa
1aac

#3262500
0aab

#3265000
0aac

#3280000
1aaa
1aac
b1110011 abb
b1 abc
b100 abh
b11 abi
1abj

#3295000
0aac

#3300000
1aab
b1100 aap
1aar
0aas
1aat

#3310000
0aaa
1aac

#3325000
0aac

#3337500
0aab

#3340000
1aaa
1aac
b10010000 abh

#3355000
0aac

#3370000
0aaa
1aac

#3375000
1aab
b1011100 aad
0aag
1aah

#3385000
0aac

#3400000
1aaa
1aac
b1 abh
b0 abi
0abj

#3412500
0aab

#3415000
0aac

#3430000
0aaa
1aac

#3445000
0aac

#3450000
1aab
b10001000 aav
0aax
1aba

#3460000
1aaa
1aac
b101011 abh
b10 abi
b1011100 abn
b0 abo
0abp
0abq

#3475000
0aac

#3487500
0aab

#3490000
0aaa
1aac

#3505000
0aac

#3520000
1aaa
1aac

#3525000
1aab
b11001110 aad
1aag
0aah
1aai
b10111100 aaj
0aal
1aam
b10111010 aap
0aar
0aat
1aau

#3535000
0aac

#3550000
0aaa
1aac

#3562500
0aab

#3565000
0aac

#3580000
1aaa
1aac
b1100 abb
b10 abc
1abf
b10001000 abh
b11 abi
1abm
b11001110 abt
0abx

#3595000
0aac

#3600000
1aab
b10100000 aav
1aax
0aay
1aaz
0aba

#3610000
0aaa
1aac

#3625000
0aac

#3637500
0aab

#3640000
1aaa
1aac

#3655000
0aac

#3670000
0aaa
1aac

#3675000
1aab

#3685000
0aac

#3700000
1aaa
1aac
b11001110 abh
b0 abi
0abm
b1100 abn
b10 abo
b10001000 abt
b11 abu
0abw

#3712500
0aab

#3715000
0aac

#3730000
0aaa
1aac

#3745000
0aac

#3750000
1aab
b10010001 aad
1aaf
0aag
1aah
0aai
b10011100 aaj
1aal
1aan
1aao

#3760000
1aaa
1aac
b10100000 abn
b11 abo
1abp
b10111010 abt
b10 abu

#3775000
0aac

#3787500
0aab

#3790000
0aaa
1aac

#3805000
0aac

#3820000
1aaa
1aac
b10011100 abb
b1 abc
1abe
1abg

#3825000
1aab
b11010001 aap
1aar
1aas
1aat
0aau

#3835000
0aac

#3850000
0aaa
1aac

#3862500
0aab

#3865000
0aac

#3880000
1aaa
1aac
b11010001 abh
b10 abi
1abj
1abl
b10011100 abt
b1 abu
1abw
1abx

#3895000
0aac

#3900000
1aab
b11011101 aaj
0aal
b1010010 aav
0aax
1aay

#3910000
0aaa
1aac

#3925000
0aac

#3937500
0aab

#3940000
1aaa
1aac
b11010001 abb
b10 abc
0abe
0abg
b10111100 abh
b1 abi
0abj
0abl
b10011100 abn
b1 abo
0abp
1abq

#3955000
0aac

#3970000
0aaa
1aac

#3975000
1aab

#3985000
0aac

#4000000
1aaa
1aac
b10011100 abh
b10010001 abn
b0 abo
1abp
0abq

#4012500
0aab

#4015000
0aac

#4030000
0aaa
1aac

#4045000
0aac

#4050000
1aab
b11111011 aad
0aaf
0aah
1aai
b1110111 aaj
1aal
0aan

#4060000
1aaa
1aac
b1110111 abb
b1 abc
1abe
0abf
1abg
b11010001 abn
b10 abo
0abp
b11011101 abt

#4075000
0aac

#4087500
0aab

#4090000
0aaa
1aac

#4105000
0aac

#4120000
1aaa
1aac
b11011101 abn
b1 abo
1abq
b1110111 abt
0abx

#4125000
1aab
b101100 aap
0aar
b1110111 aav
0aay
1aba

#4135000
0aac

#4150000
0aaa
1aac

#4162500
0aab

#4165000
0aac

#4180000
1aaa
1aac
b11011101 abh
b11111011 abt
b0 abu
0abw

#4195000
0aac

#4200000
1aab
b11111011 aaj
0aal

#4210000
0aaa
1aac

#4225000
0aac

#4237500
0aab

#4240000
1aaa
1aac
b1110111 abh
b1010010 abn
b11 abo

#4255000
0aac

#4270000
0aaa
1aac

#4275000
1aab

#4285000
0aac

#4300000
1aaa
1aac
b1010010 abh
b11 abi
b1110111 abn
0abq
1abs
b1 abu
1abw

#4312500
0aab

#4315000
0aac

#4330000
0aaa
1aac

#4345000
0aac

#4350000
1aab
b11000101 aad
1aaf
1aah
0aai
b11111010 aaj
1aal
1aan
0aao
b11101101 aav
1aay
0aaz
0aba

#4360000
1aaa
1aac
b11111010 abb
1abf
0abg

#4375000
0aac

#4387500
0aab

#4390000
0aaa
1aac

#4405000
0aac

#4420000
1aaa
1aac
b11111011 abh
b1 abi
b11000101 abn
b0 abo
1abp
0abs

#4425000
1aab
b10101000 aap
1aar
0aat
1aau

#4435000
0aac

#4450000
0aaa
1aac

#4462500
0aab

#4465000
0aac

#4480000
1aaa
1aac
b101100 abh
b10 abi
1abl
b11111010 abn
b1 abo
0abp
1abq
b1110111 abt
b11 abu
0abw

#4495000
0aac

#4500000
1aab

#4510000
0aaa
1aac

#4525000
0aac

#4537500
0aab

#4540000
1aaa
1aac
b11111010 abh
b1 abi
0abl

#4555000
0aac

#4570000
0aaa
1aac

#4575000
1aab
b1011100 aad
1aag
1aai
b10111101 aav
1aax
0aay
1aba

#4585000
0aac

#4600000
1aaa
1aac
b11101101 abh
b11 abi

#4612500
0aab

#4615000
0aac

#4630000
0aaa
1aac

#4645000
0aac

#4650000
1aab
b11101101 aaj
0aal
0aam
1aao

#4660000
1aaa
1aac
b101100 abn
b10 abo
0abq
b1011100 abt
b0 abu
1abv
1abw
1abx

#4675000
0aac

#4687500
0aab

#4690000
0aaa
1aac

#4705000
0aac

#4720000
1aaa
1aac
b10111101 abb
b11 abc
0abe
0abf
1abg
b10101000 abh
b10 abi
1abj
1abm
b1011100 abn
b0 abo
1abp
1abq
b11101101 abt
b1 abu
0abv
0abw

#4725000
1aab
b1001101 aad
b11001110 aap
0aar
1aat
0aau
b1101 aav
0aax

#4735000
0aac

#4750000
0aaa
1aac

#4762500
0aab

#4765000
0aac

#4780000
1aaa
1aac
b10101000 abb
b10 abc
b1011100 abh
b0 abi
0abm
b11101101 abn
b1 abo
0abp
0abq
b10111101 abt
b11 abu
0abx

#4795000
0aac

#4800000
1aab

#4810000
0aaa
1aac

#4825000
0aac

#4837500
0aab

#4840000
1aaa
1aac
b11001110 abh
b10 abi
0abj
1abl
b10101000 abt
b10 abu

#4855000
0aac

#4870000
0aaa
1aac

#4875000
1aab
b10001000 aad
0aaf
0aag

#4885000
0aac

#4900000
1aaa
1aac
b1001101 abt
b0 abu
1abv
1abw
1abx

#4912500
0aab

#4915000
0aac

#4930000
0aaa
1aac

#4945000
0aac

#4950000
1aab
b11101 aaj
1aal
b11010111 aap
0aat
b11010101 aav
1aax
1aay
0aba

#4960000
1aaa
1aac
b11010111 abh
0abl
b1001101 abn
b0 abo
1abp
1abq

#4975000
0aac

#4987500
0aab

#4990000
0aaa
1aac

#5005000
0aac

#5020000
1aaa
1aac
b11101 abb
b1 abc
1abf
b1001101 abh
b0 abi
1abj
b11001110 abn
b10 abo
0abp
0abq
b1101 abt
b11 abu
0abv
0abw
0abx

#5025000
1aab

#5035000
0aac

#5050000
0aaa
1aac

#5062500
0aab

#5065000
0aac

#5080000
1aaa
1aac
b11101 abt
b1 abu
1abx

#5095000
0aac

#5100000
1aab
b100111 aad
1aaf
1aag
0aah
0aai

#5110000
0aaa
1aac

#5125000
0aac

#5137500
0aab

#5140000
1aaa
1aac
b11010101 abh
b11 abi
b11101 abn
b1 abo
b10001000 abt
b0 abu

#5155000
0aac

#5170000
0aaa
1aac

#5175000
1aab
b1010001 aaj
1aam
0aan
b11010110 aap
1aar

#5185000
0aac

#5200000
1aaa
1aac
b1010001 abb
1abe
0abf
b11010110 abh
b10 abi
b10001000 abn
b0 abo

#5212500
0aab

#5215000
0aac

#5230000
0aaa
1aac

#5245000
0aac

#5250000
1aab
b11100 aad
0aag
1aai
b10000010 aav
1aba

#5260000
1aaa
1aac
b1010001 abt
b1 abu
1abw
0abx

#5275000
0aac

#5287500
0aab

#5290000
0aaa
1aac

#5305000
0aac

#5320000
1aaa
1aac
b100111 abh
b0 abi
b11100 abt
b0 abu
1abv
0abw

#5325000
1aab

#5335000
0aac

#5350000
0aaa
1aac

#5362500
0aab

#5365000
0aac

#5380000
1aaa
1aac
b1010001 abh
b1 abi
0abj

#5395000
0aac

#5400000
1aab
b10110100 aav

#5410000
0aaa
1aac

#5425000
0aac

#5437500
0aab

#5440000
1aaa
1aac
b10000010 abh
b11 abi
1abj
1abm

#5455000
0aac

#5470000
0aaa
1aac

#5475000
1aab
b10010110 aad
0aaf
1aah
0aai
b11100100 aaj
0aal
0aam
1aan
b10110010 aap
0aar

#5485000
0aac

#5500000
1aaa
1aac
b10000010 abb
b11 abc
0abe
b10110100 abh

#5512500
0aab

#5515000
0aac

#5530000
0aaa
1aac

#5545000
0aac

#5550000
1aab
b10100010 aav
0aay
1aaz

#5560000
1aaa
1aac
b10110100 abb
b10110010 abh
b10 abi
0abj
0abm
b10010110 abn
b10000010 abt
b11 abu
0abv

#5575000
0aac

#5587500
0aab

#5590000
0aaa
1aac

#5605000
0aac

#5620000
1aaa
1aac
b10100010 abn
b11 abo
1abp
1abs
b10110100 abt

#5625000
1aab
b11000100 aaj
1aam
0aao

#5635000
0aac

#5650000
0aaa
1aac

#5662500
0aab

#5665000
0aac

#5680000
1aaa
1aac
b11100100 abt
b1 abu
1abx

#5695000
0aac

#5700000
1aab

#5710000
0aaa
1aac

#5725000
0aac

#5737500
0aab

#5740000
1aaa
1aac
b10100010 abb
b11100100 abn
b1 abo
0abp
0abs

#5755000
0aac

#5770000
0aaa
1aac

#5775000
1aab
b1001 aad
1aai
b10100 aap
1aar
0aas
1aat
b1101010 aav
0aaz

#5785000
0aac

#5800000
1aaa
1aac
b11000100 abn
1abq
b10100010 abt
b11 abu
0abx

#5812500
0aab

#5815000
0aac

#5830000
0aaa
1aac

#5845000
0aac

#5850000
1aab

#5860000
1aaa
1aac
b10100 abb
b10 abc
1abf
0abg
b11000100 abh
b1 abi
b1001 abt
b0 abu
1abx

#5875000
0aac

#5887500
0aab

#5890000
0aaa
1aac

#5905000
0aac

#5920000
1aaa
1aac
b1001 abn
b0 abo
0abq

#5925000
1aab
b10110000 aad
1aaf
1aag
0aai
b10001001 aaj
0aan
1aao

#5935000
0aac

#5950000
0aaa
1aac

#5962500
0aab

#5965000
0aac

#5980000
1aaa
1aac
b1101010 abb
b11 abc
0abf
1abg
b10100 abn
b10 abo

#5995000
0aac

#6000000
1aab
b10101000 aap
0aar
1aas
1aau

#6010000
0aaa
1aac

#6025000
0aac

#6037500
0aab

#6040000
1aaa
1aac
b10101000 abh
b10 abi
1abl
1abm
b10110000 abn
b0 abo
1abp
1abq
b1101010 abt
b11 abu
0abx

#6055000
0aac

#6070000
0aaa
1aac

#6075000
1aab
b11100010 aav
0aba

#6085000
0aac

#6100000
1aaa
1aac
b10110000 abh
b0 abi
1abj
0abl
0abm
b10001001 abt
b1 abu
1abw

#6112500
0aab

#6115000
0aac

#6130000
0aaa
1aac

#6145000
0aac

#6150000
1aab
b110111 aad
0aaf
0aah

#6160000
1aaa
1aac
b10101000 abt
b10 abu
0abw
1abx

#6175000
0aac

#6187500
0aab

#6190000
0aaa
1aac

#6205000
0aac

#6220000
1aaa
1aac
b11100010 abb
0abg
b10001001 abh
b1 abi
0abj
b10101000 abn
b10 abo
0abp
0abq

#6225000
1aab
b110000 aaj
1aal
0aao
b11000100 aap
1aar
0aau

#6235000
0aac

#6250000
0aaa
1aac

#6262500
0aab

#6265000
0aac

#6280000
1aaa
1aac
b110000 abb
b1 abc
1abe
b11000100 abh
b10 abi
1abj
1abl

#6295000
0aac

#6300000
1aab

#6310000
0aaa
1aac

#6325000
0aac

#6337500
0aab

#6340000
1aaa
1aac
b11000100 abb
b10 abc
0abe
1abf
b110111 abh
b0 abi
0abj
0abl

#6355000
0aac

#6370000
0aaa
1aac

#6375000
1aab
b11001001 aap
0aar
0aas
0aat
1aau
b101101 aav

#6385000
0aac

#6400000
1aaa
1aac

#6412500
0aab

#6415000
0aac

#6430000
0aaa
1aac

#6445000
0aac

#6450000
1aab
b111010 aad
0aag
1aai
b10110101 aaj
0aal
1aao

#6460000
1aaa
1aac
b110000 abh
b1 abi
b11000100 abn
b111010 abt
b0 abu
0abx

#6475000
0aac

#6487500
0aab

#6490000
0aaa
1aac

#6505000
0aac

#6520000
1aaa
1aac
b11001001 abt
b10 abu

#6525000
1aab
b10000110 aav
1aay
1aaz

#6535000
0aac

#6550000
0aaa
1aac

#6562500
0aab

#6565000
0aac

#6580000
1aaa
1aac
b10000110 abn
b11 abo
1abp
1abq
b10110101 abt
b1 abu
1abw

#6595000
0aac

#6600000
1aab
b1111101 aad

#6610000
0aaa
1aac

#6625000
0aac

#6637500
0aab

#6640000
1aaa
1aac
b101101 abb
b11 abc
0abf
b10000110 abh
b11 abi
1abj
b1111101 abt
b0 abu
0abw

#6655000
0aac

#6670000
0aaa
1aac

#6675000
1aab
b10100010 aap
1aar
1aas
1aat
b10101101 aav
0aaz
1aba

#6685000
0aac

#6700000
1aaa
1aac
b10110101 abh
b1 abi
0abj

#6712500
0aab

#6715000
0aac

#6730000
0aaa
1aac

#6745000
0aac

#6750000
1aab
b10110001 aaj
1aal
0aam
1aan

#6760000
1aaa
1aac
b10110001 abb
b1 abc
1abf
1abg
b10101101 abh
b11 abi
1abj
1abm

#6775000
0aac

#6787500
0aab

#6790000
0aaa
1aac

#6805000
0aac

#6820000
1aaa
1aac
b10101101 abb
b11 abc
0abf
b10100010 abh
b10 abi
1abl
b10110001 abt
b1 abu
1abx

#6825000
1aab
b11000010 aad
1aaf
1aag
1aah
0aai
b110111 aav
0aay
1aaz
0aba

#6835000
0aac

#6850000
0aaa
1aac

#6862500
0aab

#6865000
0aac

#6880000
1aaa
1aac
b10100010 abb
b10 abc
1abf
b10110001 abn
b1 abo
0abp
0abq
b10101101 abt
b11 abu
0abx

#6895000
0aac

#6900000
1aab

#6910000
0aaa
1aac

#6925000
0aac

#6937500
0aab

#6940000
1aaa
1aac
b110111 abn
b11 abo
1abp
b10100010 abt
b10 abu
1abx

#6955000
0aac

#6970000
0aaa
1aac

#6975000
1aab
b111101 aap
0aar
0aas
0aau

#6985000
0aac

#7000000
1aaa
1aac
b10100010 abn
b10 abo
0abp

#7012500
0aab

#7015000
0aac

#7030000
0aaa
1aac

#7045000
0aac

#7050000
1aab
b11010111 aad
0aag
0aah
1aai
b1101001 aaj
0aal
0aao
b11111000 aav
0aaz
1aba

#7060000
1aaa
1aac
b11000010 abn
b0 abo
1abp
1abq
b11010111 abt
b0 abu
1abv
0abx

#7075000
0aac

#7087500
0aab

#7090000
0aaa
1aac

#7105000
0aac

#7120000
1aaa
1aac
b11000010 abh
b0 abi
0abl
0abm

#7125000
1aab
b101 aap
1aar
1aau

#7135000
0aac

#7150000
0aaa
1aac

#7162500
0aab

#7165000
0aac

#7180000
1aaa
1aac
b111101 abn
b10 abo
0abp
0abq

#7195000
0aac

#7200000
1aab
b10111111 aav
0aax
1aay

#7210000
0aaa
1aac

#7225000
0aac

#7237500
0aab

#7240000
1aaa
1aac
b11111000 abb
b11 abc
0abf
b1101001 abn
b1 abo

#7255000
0aac

#7270000
0aaa
1aac

#7275000
1aab
b110110 aad
1aag
1aah
0aai
b10010010 aap

#7285000
0aac

#7300000
1aaa
1aac
b101 abb
b10 abc
1abf
b11111000 abt
b11 abu
0abv

#7312500
0aab

#7315000
0aac

#7330000
0aaa
1aac

#7345000
0aac

#7350000
1aab
b1011100 aaj
1aal
0aan

